01_game_of_life/conway_cell.vcd
$date
	Thu Oct  7 17:35:39 2021
$end
$version
	Icarus Verilog
$end
$timescale
	1ps
$end
$scope module test_conway_cell $end
$scope module UUT $end
$var wire 1 ! clk $end
$var wire 1 " ena $end
$var wire 8 # neighbors [7:0] $end
$var wire 1 $ rst $end
$var wire 1 % state_0 $end
$var wire 6 & two_bit_sums [5:0] $end
$var wire 8 ' one_bit_sums [7:0] $end
$var wire 4 ( living_neighbors [3:0] $end
$var reg 1 ) continue_alive $end
$var reg 1 * enabled_output $end
$var reg 1 + is_3 $end
$var reg 1 , reset_output $end
$var reg 1 - state_d $end
$var reg 1 . state_q $end
$scope module adder_1_1 $end
$var wire 1 / a $end
$var wire 1 0 b $end
$var wire 1 1 c_in $end
$var reg 1 2 c_out $end
$var reg 1 3 g $end
$var reg 1 4 p $end
$var reg 1 5 sum $end
$upscope $end
$scope module adder_1_2 $end
$var wire 1 6 a $end
$var wire 1 7 b $end
$var wire 1 8 c_in $end
$var reg 1 9 c_out $end
$var reg 1 : g $end
$var reg 1 ; p $end
$var reg 1 < sum $end
$upscope $end
$scope module adder_1_3 $end
$var wire 1 = a $end
$var wire 1 > b $end
$var wire 1 ? c_in $end
$var reg 1 @ c_out $end
$var reg 1 A g $end
$var reg 1 B p $end
$var reg 1 C sum $end
$upscope $end
$scope module adder_1_4 $end
$var wire 1 D a $end
$var wire 1 E b $end
$var wire 1 F c_in $end
$var reg 1 G c_out $end
$var reg 1 H g $end
$var reg 1 I p $end
$var reg 1 J sum $end
$upscope $end
$scope module adder_2_1 $end
$var wire 2 K a [1:0] $end
$var wire 2 L b [1:0] $end
$var wire 1 M c_in $end
$var wire 2 N sum [1:0] $end
$var wire 3 O carries [2:0] $end
$var wire 1 P c_out $end
$scope begin ripple_carry[0] $end
$scope module ADDER $end
$var wire 1 Q a $end
$var wire 1 R b $end
$var wire 1 S c_in $end
$var reg 1 T c_out $end
$var reg 1 U g $end
$var reg 1 V p $end
$var reg 1 W sum $end
$upscope $end
$upscope $end
$scope begin ripple_carry[1] $end
$scope module ADDER $end
$var wire 1 X a $end
$var wire 1 Y b $end
$var wire 1 Z c_in $end
$var reg 1 [ c_out $end
$var reg 1 \ g $end
$var reg 1 ] p $end
$var reg 1 ^ sum $end
$upscope $end
$upscope $end
$upscope $end
$scope module adder_2_2 $end
$var wire 2 _ a [1:0] $end
$var wire 2 ` b [1:0] $end
$var wire 1 a c_in $end
$var wire 2 b sum [1:0] $end
$var wire 3 c carries [2:0] $end
$var wire 1 d c_out $end
$scope begin ripple_carry[0] $end
$scope module ADDER $end
$var wire 1 e a $end
$var wire 1 f b $end
$var wire 1 g c_in $end
$var reg 1 h c_out $end
$var reg 1 i g $end
$var reg 1 j p $end
$var reg 1 k sum $end
$upscope $end
$upscope $end
$scope begin ripple_carry[1] $end
$scope module ADDER $end
$var wire 1 l a $end
$var wire 1 m b $end
$var wire 1 n c_in $end
$var reg 1 o c_out $end
$var reg 1 p g $end
$var reg 1 q p $end
$var reg 1 r sum $end
$upscope $end
$upscope $end
$upscope $end
$scope module adder_3 $end
$var wire 3 s a [2:0] $end
$var wire 3 t b [2:0] $end
$var wire 1 u c_in $end
$var wire 3 v sum [2:0] $end
$var wire 4 w carries [3:0] $end
$var wire 1 x c_out $end
$scope begin ripple_carry[0] $end
$scope module ADDER $end
$var wire 1 y a $end
$var wire 1 z b $end
$var wire 1 { c_in $end
$var reg 1 | c_out $end
$var reg 1 } g $end
$var reg 1 ~ p $end
$var reg 1 !" sum $end
$upscope $end
$upscope $end
$scope begin ripple_carry[1] $end
$scope module ADDER $end
$var wire 1 "" a $end
$var wire 1 #" b $end
$var wire 1 $" c_in $end
$var reg 1 %" c_out $end
$var reg 1 &" g $end
$var reg 1 '" p $end
$var reg 1 (" sum $end
$upscope $end
$upscope $end
$scope begin ripple_carry[2] $end
$scope module ADDER $end
$var wire 1 )" a $end
$var wire 1 *" b $end
$var wire 1 +" c_in $end
$var reg 1 ," c_out $end
$var reg 1 -" g $end
$var reg 1 ." p $end
$var reg 1 /" sum $end
$upscope $end
$upscope $end
$upscope $end
$upscope $end
$upscope $end
$enddefinitions $end
#0
$dumpvars
x/"
x."
x-"
x,"
x+"
x*"
x)"
x("
x'"
x&"
x%"
x$"
x#"
x""
x!"
x~
x}
x|
0{
xz
xy
xx
bx0 w
bx v
0u
bx t
bx s
xr
xq
xp
xo
xn
xm
xl
xk
xj
xi
xh
0g
xf
xe
xd
bx0 c
bx b
0a
bx `
bx _
x^
x]
x\
x[
xZ
xY
xX
xW
xV
xU
xT
0S
xR
xQ
xP
bx0 O
bx N
0M
bx L
bx K
xJ
xI
xH
xG
0F
xE
xD
xC
xB
xA
x@
0?
x>
x=
x<
x;
x:
x9
08
x7
x6
x5
x4
x3
x2
01
x0
x/
x.
x-
0,
x+
x*
x)
bx (
bx '
bx &
0%
1$
bx #
1"
0!
$end
#5000
1!
#10000
0!
#15000
x,
0$
1!
#20000
0/"
0,
0*
0+"
0-
0)
0%"
0("
0&"
0'"
0""
0#"
0$"
0+
0x
0|
b0 (
b0 v
0!"
0}
0~
b0 w
0,"
0-"
0."
0^
0y
0)"
0r
0z
0*"
0Z
b0 s
0P
0n
b0 t
0d
0T
b0 N
0W
0U
0V
b0 O
0[
0\
0]
0h
b0 &
b0 b
0k
0i
0j
b0 c
0o
0p
0q
0Q
0X
0R
0Y
0e
0l
0f
0m
b0 K
b0 L
b0 _
b0 `
02
05
03
04
09
0<
0:
0;
0@
0C
0A
0B
0G
b0 '
0J
0H
0I
0/
00
06
07
0=
0>
0D
0E
b0 #
0!
#25000
0.
1!
#30000
b1 (
b1 v
1!"
1~
1y
b1 s
b1 &
b1 N
1W
1V
1Q
b1 K
b1 '
15
14
1/
b1 #
0!
#35000
1!
#40000
0/
10
b10 #
0!
#45000
1!
#50000
0!"
0~
b10 (
b10 v
1("
1'"
0y
1""
b10 s
0W
0V
b10 &
b10 N
1^
1]
0Q
1X
b10 K
12
b10 '
05
13
04
1/
b11 #
0!
#55000
1!
#60000
1!"
1~
b1 (
b1 v
0("
0'"
1y
0""
b1 s
0^
0]
b1 &
b1 N
1W
1V
0X
1R
b0 K
b1 L
02
03
b100 '
1<
1;
0/
00
16
b100 #
0!
#65000
1!
#70000
1("
1'"
1""
b10 (
b10 v
0!"
0~
1^
0y
1Z
b10 s
b10 O
1T
b10 &
b10 N
0W
1U
0V
1Q
b1 K
b101 '
15
14
1/
b101 #
0!
#75000
1!
#80000
0/
10
b110 #
0!
#85000
1!
#90000
1,
1*
1-
1+
0/"
0."
0)"
1!"
1~
b11 (
b11 v
1("
1'"
1y
1""
0Z
0P
b11 s
0T
1W
0U
1V
b0 O
0[
b11 &
b11 N
1^
1]
0Q
1X
b10 K
12
b110 '
05
13
04
1/
b111 #
0!
#95000
1.
1!
#100000
0,
0*
0-
0+
b1 (
b1 v
0("
0'"
0""
b1 s
b1 &
b1 N
0^
0]
0X
b0 K
b100 '
02
03
0/
00
06
17
b1000 #
0!
#105000
0.
1!
#110000
1("
1'"
1""
b10 (
b10 v
0!"
0~
1^
0y
1Z
b10 s
b10 O
1T
b10 &
b10 N
0W
1U
0V
1Q
b1 K
b101 '
15
14
1/
b1001 #
0!
#115000
1!
#120000
0/
10
b1010 #
0!
#125000
1!
#130000
1,
1*
1-
1+
0/"
0."
0)"
1!"
1~
b11 (
b11 v
1("
1'"
1y
1""
0Z
0P
b11 s
0T
1W
0U
1V
b0 O
0[
b11 &
b11 N
1^
1]
0Q
1X
b10 K
12
b110 '
05
13
04
1/
b1011 #
0!
#135000
1.
1!
#140000
1)
0+
b10 (
b10 v
0!"
0~
0y
b10 s
b10 &
b10 N
0W
0V
0X
0R
1Y
b0 K
b10 L
02
03
19
b1000 '
0<
1:
0;
0/
00
16
b1100 #
0!
#145000
1!
#150000
0)
1+
b11 (
b11 v
1!"
1~
1y
b11 s
b11 &
b11 N
1W
1V
1Q
b1 K
b1001 '
15
14
1/
b1101 #
0!
#155000
1!
#160000
0/
10
b1110 #
0!
#165000
1!
#170000
0,
0*
1/"
1."
0-
0+
1)"
0!"
0~
b100 (
b100 v
0("
0'"
0y
0""
1P
b100 s
0W
0V
b100 O
1[
b100 &
b0 N
0^
1\
0]
0Q
1X
b10 K
12
b1010 '
05
13
04
1/
b1111 #
0!
#175000
0.
1!
#180000
0/"
0."
0)"
b1 (
b1 v
1!"
1~
b0 s
1z
0P
b1 t
b0 O
0[
0\
b1000 &
b1 b
1k
1j
0X
0Y
1e
b0 K
b0 L
b1 _
02
03
09
0:
b10000 '
1C
1B
0/
00
06
07
1=
b10000 #
0!
#185000
1!
#190000
1("
1$"
b10 w
1|
b10 (
b10 v
0!"
1}
0~
1y
b1 s
b1001 &
b1 N
1W
1V
1Q
b1 K
b10001 '
15
14
1/
b10001 #
0!
#195000
1!
#200000
0/
10
b10010 #
0!
#205000
1!
#210000
1,
1*
1-
1+
0/"
0$"
0+"
0|
1!"
0}
1~
b0 w
0%"
b11 (
b11 v
1("
1'"
0y
1""
b10 s
0W
0V
b1010 &
b10 N
1^
1]
0Q
1X
b10 K
12
b10010 '
05
13
04
1/
b10011 #
0!
#215000
1.
1!
#220000
1)
1,
1*
1$"
1-
0+
b10 w
1|
0!"
1}
0~
b10 (
b10 v
1("
0'"
1y
0""
b1 s
0^
0]
b1001 &
b1 N
1W
1V
0X
1R
b0 K
b1 L
02
03
b10100 '
1<
1;
0/
00
16
b10100 #
0!
#225000
1!
#230000
1'"
1""
0$"
0)
1+
b0 w
0|
b11 (
b11 v
1!"
0}
1~
1^
0y
1Z
b10 s
b10 O
1T
b1010 &
b10 N
0W
1U
0V
1Q
b1 K
b10101 '
15
14
1/
b10101 #
0!
#235000
1!
#240000
0/
10
b10110 #
0!
#245000
1!
#250000
1+"
1%"
0,
0*
1/"
0."
1$"
0-
0+
0)"
b110 w
1|
0!"
1}
0~
b100 (
b100 v
0("
1'"
1y
1""
0Z
0P
b11 s
0T
1W
0U
1V
b0 O
0[
b1011 &
b11 N
1^
1]
0Q
1X
b10 K
12
b10110 '
05
13
04
1/
b10111 #
0!
#255000
0.
1!
#260000
0/"
0+"
b10 w
0%"
b10 (
b10 v
1("
0'"
0""
b1 s
b1001 &
b1 N
0^
0]
0X
b0 K
b10100 '
02
03
0/
00
06
17
b11000 #
0!
#265000
1!
#270000
1'"
1,
1*
1""
0$"
1-
1+
b0 w
0|
b11 (
b11 v
1!"
0}
1~
1^
0y
1Z
b10 s
b10 O
1T
b1010 &
b10 N
0W
1U
0V
1Q
b1 K
b10101 '
15
14
1/
b11001 #
0!
#275000
1.
1!
#280000
0/
10
b11010 #
0!
#285000
1!
#290000
1+"
1%"
0,
0*
1/"
0."
1$"
0-
0+
0)"
b110 w
1|
0!"
1}
0~
b100 (
b100 v
0("
1'"
1y
1""
0Z
0P
b11 s
0T
1W
0U
1V
b0 O
0[
b1011 &
b11 N
1^
1]
0Q
1X
b10 K
12
b10110 '
05
13
04
1/
b11011 #
0!
#295000
0.
1!
#300000
1,
1*
1-
1+
0/"
0+"
0%"
1("
0$"
b0 w
0|
b11 (
b11 v
1!"
0}
1~
0y
b10 s
b1010 &
b10 N
0W
0V
0X
0R
1Y
b0 K
b10 L
02
03
19
b11000 '
0<
1:
0;
0/
00
16
b11100 #
0!
#305000
1.
1!
#310000
1/"
0,
0*
1+"
0-
1%"
0("
1$"
0)
0+
b110 w
1|
b100 (
b100 v
0!"
1}
0~
1y
b11 s
b1011 &
b11 N
1W
1V
1Q
b1 K
b11001 '
15
14
1/
b11101 #
0!
#315000
0.
1!
#320000
0/
10
b11110 #
0!
#325000
1!
#330000
1."
0$"
0+"
1)"
0|
1!"
0}
1~
b0 w
0%"
b101 (
b101 v
0("
0'"
0y
0""
1P
b100 s
0W
0V
b100 O
1[
b1100 &
b0 N
0^
1\
0]
0Q
1X
b10 K
12
b11010 '
05
13
04
1/
b11111 #
0!
#335000
1!
#340000
b1 (
b1 v
0/"
0."
0)"
b0 s
b1000 &
0P
b0 O
0[
0\
0X
0Y
b0 K
b0 L
02
03
b10000 '
09
0:
0/
00
06
07
0=
1>
b100000 #
0!
#345000
1!
#350000
1("
1$"
b10 w
1|
b10 (
b10 v
0!"
1}
0~
1y
b1 s
b1001 &
b1 N
1W
1V
1Q
b1 K
b10001 '
15
14
1/
b100001 #
0!
#355000
1!
#360000
0/
10
b100010 #
0!
#365000
1!
#370000
1,
1*
1-
1+
0/"
0$"
0+"
0|
1!"
0}
1~
b0 w
0%"
b11 (
b11 v
1("
1'"
0y
1""
b10 s
0W
0V
b1010 &
b10 N
1^
1]
0Q
1X
b10 K
12
b10010 '
05
13
04
1/
b100011 #
0!
#375000
1.
1!
#380000
1)
1,
1*
1$"
1-
0+
b10 w
1|
0!"
1}
0~
b10 (
b10 v
1("
0'"
1y
0""
b1 s
0^
0]
b1001 &
b1 N
1W
1V
0X
1R
b0 K
b1 L
02
03
b10100 '
1<
1;
0/
00
16
b100100 #
0!
#385000
1!
#390000
1'"
1""
0$"
0)
1+
b0 w
0|
b11 (
b11 v
1!"
0}
1~
1^
0y
1Z
b10 s
b10 O
1T
b1010 &
b10 N
0W
1U
0V
1Q
b1 K
b10101 '
15
14
1/
b100101 #
0!
#395000
1!
#400000
0/
10
b100110 #
0!
#405000
1!
#410000
1+"
1%"
0,
0*
1/"
0."
1$"
0-
0+
0)"
b110 w
1|
0!"
1}
0~
b100 (
b100 v
0("
1'"
1y
1""
0Z
0P
b11 s
0T
1W
0U
1V
b0 O
0[
b1011 &
b11 N
1^
1]
0Q
1X
b10 K
12
b10110 '
05
13
04
1/
b100111 #
0!
#415000
0.
1!
#420000
0/"
0+"
b10 w
0%"
b10 (
b10 v
1("
0'"
0""
b1 s
b1001 &
b1 N
0^
0]
0X
b0 K
b10100 '
02
03
0/
00
06
17
b101000 #
0!
#425000
1!
#430000
1'"
1,
1*
1""
0$"
1-
1+
b0 w
0|
b11 (
b11 v
1!"
0}
1~
1^
0y
1Z
b10 s
b10 O
1T
b1010 &
b10 N
0W
1U
0V
1Q
b1 K
b10101 '
15
14
1/
b101001 #
0!
#435000
1.
1!
#440000
0/
10
b101010 #
0!
#445000
1!
#450000
1+"
1%"
0,
0*
1/"
0."
1$"
0-
0+
0)"
b110 w
1|
0!"
1}
0~
b100 (
b100 v
0("
1'"
1y
1""
0Z
0P
b11 s
0T
1W
0U
1V
b0 O
0[
b1011 &
b11 N
1^
1]
0Q
1X
b10 K
12
b10110 '
05
13
04
1/
b101011 #
0!
#455000
0.
1!
#460000
1,
1*
1-
1+
0/"
0+"
0%"
1("
0$"
b0 w
0|
b11 (
b11 v
1!"
0}
1~
0y
b10 s
b1010 &
b10 N
0W
0V
0X
0R
1Y
b0 K
b10 L
02
03
19
b11000 '
0<
1:
0;
0/
00
16
b101100 #
0!
#465000
1.
1!
#470000
1/"
0,
0*
1+"
0-
1%"
0("
1$"
0)
0+
b110 w
1|
b100 (
b100 v
0!"
1}
0~
1y
b11 s
b1011 &
b11 N
1W
1V
1Q
b1 K
b11001 '
15
14
1/
b101101 #
0!
#475000
0.
1!
#480000
0/
10
b101110 #
0!
#485000
1!
#490000
1."
0$"
0+"
1)"
0|
1!"
0}
1~
b0 w
0%"
b101 (
b101 v
0("
0'"
0y
0""
1P
b100 s
0W
0V
b100 O
1[
b1100 &
b0 N
0^
1\
0]
0Q
1X
b10 K
12
b11010 '
05
13
04
1/
b101111 #
0!
#495000
1!
#500000
0/"
0."
0)"
0!"
0~
b10 (
b10 v
1("
1'"
b0 s
0z
1#"
0P
b10 t
b0 O
0[
0\
0k
0j
b10000 &
b10 b
1r
1q
0X
0Y
0e
1l
b0 K
b0 L
b10 _
02
03
09
0:
1@
b100000 '
0C
1A
0B
0/
00
06
07
1=
b110000 #
0!
#505000
1!
#510000
1,
1*
1-
1+
b11 (
b11 v
1!"
1~
1y
b1 s
b10001 &
b1 N
1W
1V
1Q
b1 K
b100001 '
15
14
1/
b110001 #
0!
#515000
1.
1!
#520000
0/
10
b110010 #
0!
#525000
1!
#530000
1/"
0,
0*
1+"
0-
0+
0!"
0~
b100 w
1%"
b100 (
b100 v
0("
1&"
0'"
0y
1""
b10 s
0W
0V
b10010 &
b10 N
1^
1]
0Q
1X
b10 K
12
b100010 '
05
13
04
1/
b110011 #
0!
#535000
0.
1!
#540000
1,
1*
1-
1+
0/"
0+"
1!"
1~
b0 w
0%"
b11 (
b11 v
1("
0&"
1'"
1y
0""
b1 s
0^
0]
b10001 &
b1 N
1W
1V
0X
1R
b0 K
b1 L
02
03
b100100 '
1<
1;
0/
00
16
b110100 #
0!
#545000
1.
1!
#550000
1/"
0,
0*
1+"
0-
b100 w
1%"
0("
1&"
0'"
1""
0)
0+
b100 (
b100 v
0!"
0~
1^
0y
1Z
b10 s
b10 O
1T
b10010 &
b10 N
0W
1U
0V
1Q
b1 K
b100101 '
15
14
1/
b110101 #
0!
#555000
0.
1!
#560000
0/
10
b110110 #
0!
#565000
1!
#570000
0."
1+"
0)"
1!"
1~
b100 w
1%"
b101 (
b101 v
0("
1&"
0'"
1y
1""
0Z
0P
b11 s
0T
1W
0U
1V
b0 O
0[
b10011 &
b11 N
1^
1]
0Q
1X
b10 K
12
b100110 '
05
13
04
1/
b110111 #
0!
#575000
1!
#580000
1,
1*
1-
1+
0/"
0+"
b0 w
0%"
b11 (
b11 v
1("
0&"
1'"
0""
b1 s
b10001 &
b1 N
0^
0]
0X
b0 K
b100100 '
02
03
0/
00
06
17
b111000 #
0!
#585000
1.
1!
#590000
1/"
0,
0*
1+"
0-
b100 w
1%"
0("
1&"
0'"
1""
0)
0+
b100 (
b100 v
0!"
0~
1^
0y
1Z
b10 s
b10 O
1T
b10010 &
b10 N
0W
1U
0V
1Q
b1 K
b100101 '
15
14
1/
b111001 #
0!
#595000
0.
1!
#600000
0/
10
b111010 #
0!
#605000
1!
#610000
0."
1+"
0)"
1!"
1~
b100 w
1%"
b101 (
b101 v
0("
1&"
0'"
1y
1""
0Z
0P
b11 s
0T
1W
0U
1V
b0 O
0[
b10011 &
b11 N
1^
1]
0Q
1X
b10 K
12
b100110 '
05
13
04
1/
b111011 #
0!
#615000
1!
#620000
b100 (
b100 v
0!"
0~
0y
b10 s
b10010 &
b10 N
0W
0V
0X
0R
1Y
b0 K
b10 L
02
03
19
b101000 '
0<
1:
0;
0/
00
16
b111100 #
0!
#625000
1!
#630000
b101 (
b101 v
1!"
1~
1y
b11 s
b10011 &
b11 N
1W
1V
1Q
b1 K
b101001 '
15
14
1/
b111101 #
0!
#635000
1!
#640000
0/
10
b111110 #
0!
#645000
1!
#650000
1."
0+"
1)"
0!"
0~
b0 w
0%"
b110 (
b110 v
1("
0&"
1'"
0y
0""
1P
b100 s
0W
0V
b100 O
1[
b10100 &
b0 N
0^
1\
0]
0Q
1X
b10 K
12
b101010 '
05
13
04
1/
b111111 #
0!
#655000
1!
#660000
0/"
0."
0)"
1!"
1~
b1 (
b1 v
0("
0'"
b0 s
1z
0#"
0P
b1 t
b0 O
0[
0\
0r
0q
b1000 &
b1 b
1k
1j
0X
0Y
0l
1f
b0 K
b0 L
b0 _
b1 `
02
03
09
0:
0@
0A
b1000000 '
1J
1I
0/
00
06
07
0=
0>
1D
b1000000 #
0!
#665000
1!
#670000
1("
1$"
b10 w
1|
b10 (
b10 v
0!"
1}
0~
1y
b1 s
b1001 &
b1 N
1W
1V
1Q
b1 K
b1000001 '
15
14
1/
b1000001 #
0!
#675000
1!
#680000
0/
10
b1000010 #
0!
#685000
1!
#690000
1,
1*
1-
1+
0/"
0$"
0+"
0|
1!"
0}
1~
b0 w
0%"
b11 (
b11 v
1("
1'"
0y
1""
b10 s
0W
0V
b1010 &
b10 N
1^
1]
0Q
1X
b10 K
12
b1000010 '
05
13
04
1/
b1000011 #
0!
#695000
1.
1!
#700000
1)
1,
1*
1$"
1-
0+
b10 w
1|
0!"
1}
0~
b10 (
b10 v
1("
0'"
1y
0""
b1 s
0^
0]
b1001 &
b1 N
1W
1V
0X
1R
b0 K
b1 L
02
03
b1000100 '
1<
1;
0/
00
16
b1000100 #
0!
#705000
1!
#710000
1'"
1""
0$"
0)
1+
b0 w
0|
b11 (
b11 v
1!"
0}
1~
1^
0y
1Z
b10 s
b10 O
1T
b1010 &
b10 N
0W
1U
0V
1Q
b1 K
b1000101 '
15
14
1/
b1000101 #
0!
#715000
1!
#720000
0/
10
b1000110 #
0!
#725000
1!
#730000
1+"
1%"
0,
0*
1/"
0."
1$"
0-
0+
0)"
b110 w
1|
0!"
1}
0~
b100 (
b100 v
0("
1'"
1y
1""
0Z
0P
b11 s
0T
1W
0U
1V
b0 O
0[
b1011 &
b11 N
1^
1]
0Q
1X
b10 K
12
b1000110 '
05
13
04
1/
b1000111 #
0!
#735000
0.
1!
#740000
0/"
0+"
b10 w
0%"
b10 (
b10 v
1("
0'"
0""
b1 s
b1001 &
b1 N
0^
0]
0X
b0 K
b1000100 '
02
03
0/
00
06
17
b1001000 #
0!
#745000
1!
#750000
1'"
1,
1*
1""
0$"
1-
1+
b0 w
0|
b11 (
b11 v
1!"
0}
1~
1^
0y
1Z
b10 s
b10 O
1T
b1010 &
b10 N
0W
1U
0V
1Q
b1 K
b1000101 '
15
14
1/
b1001001 #
0!
#755000
1.
1!
#760000
0/
10
b1001010 #
0!
#765000
1!
#770000
1+"
1%"
0,
0*
1/"
0."
1$"
0-
0+
0)"
b110 w
1|
0!"
1}
0~
b100 (
b100 v
0("
1'"
1y
1""
0Z
0P
b11 s
0T
1W
0U
1V
b0 O
0[
b1011 &
b11 N
1^
1]
0Q
1X
b10 K
12
b1000110 '
05
13
04
1/
b1001011 #
0!
#775000
0.
1!
#780000
1,
1*
1-
1+
0/"
0+"
0%"
1("
0$"
b0 w
0|
b11 (
b11 v
1!"
0}
1~
0y
b10 s
b1010 &
b10 N
0W
0V
0X
0R
1Y
b0 K
b10 L
02
03
19
b1001000 '
0<
1:
0;
0/
00
16
b1001100 #
0!
#785000
1.
1!
#790000
1/"
0,
0*
1+"
0-
1%"
0("
1$"
0)
0+
b110 w
1|
b100 (
b100 v
0!"
1}
0~
1y
b11 s
b1011 &
b11 N
1W
1V
1Q
b1 K
b1001001 '
15
14
1/
b1001101 #
0!
#795000
0.
1!
#800000
0/
10
b1001110 #
0!
#805000
1!
#810000
1."
0$"
0+"
1)"
0|
1!"
0}
1~
b0 w
0%"
b101 (
b101 v
0("
0'"
0y
0""
1P
b100 s
0W
0V
b100 O
1[
b1100 &
b0 N
0^
1\
0]
0Q
1X
b10 K
12
b1001010 '
05
13
04
1/
b1001111 #
0!
#815000
1!
#820000
1("
1'"
0/"
0."
1#"
0)"
b10 (
b10 v
0!"
0~
b0 s
1r
0z
0P
1n
b10 t
b0 O
0[
0\
b10 c
1h
b10000 &
b10 b
0k
1i
0j
0X
0Y
1e
b0 K
b0 L
b1 _
02
03
09
0:
b1010000 '
1C
1B
0/
00
06
07
1=
b1010000 #
0!
#825000
1!
#830000
1,
1*
1-
1+
b11 (
b11 v
1!"
1~
1y
b1 s
b10001 &
b1 N
1W
1V
1Q
b1 K
b1010001 '
15
14
1/
b1010001 #
0!
#835000
1.
1!
#840000
0/
10
b1010010 #
0!
#845000
1!
#850000
1/"
0,
0*
1+"
0-
0+
0!"
0~
b100 w
1%"
b100 (
b100 v
0("
1&"
0'"
0y
1""
b10 s
0W
0V
b10010 &
b10 N
1^
1]
0Q
1X
b10 K
12
b1010010 '
05
13
04
1/
b1010011 #
0!
#855000
0.
1!
#860000
1,
1*
1-
1+
0/"
0+"
1!"
1~
b0 w
0%"
b11 (
b11 v
1("
0&"
1'"
1y
0""
b1 s
0^
0]
b10001 &
b1 N
1W
1V
0X
1R
b0 K
b1 L
02
03
b1010100 '
1<
1;
0/
00
16
b1010100 #
0!
#865000
1.
1!
#870000
1/"
0,
0*
1+"
0-
b100 w
1%"
0("
1&"
0'"
1""
0)
0+
b100 (
b100 v
0!"
0~
1^
0y
1Z
b10 s
b10 O
1T
b10010 &
b10 N
0W
1U
0V
1Q
b1 K
b1010101 '
15
14
1/
b1010101 #
0!
#875000
0.
1!
#880000
0/
10
b1010110 #
0!
#885000
1!
#890000
0."
1+"
0)"
1!"
1~
b100 w
1%"
b101 (
b101 v
0("
1&"
0'"
1y
1""
0Z
0P
b11 s
0T
1W
0U
1V
b0 O
0[
b10011 &
b11 N
1^
1]
0Q
1X
b10 K
12
b1010110 '
05
13
04
1/
b1010111 #
0!
#895000
1!
#900000
1,
1*
1-
1+
0/"
0+"
b0 w
0%"
b11 (
b11 v
1("
0&"
1'"
0""
b1 s
b10001 &
b1 N
0^
0]
0X
b0 K
b1010100 '
02
03
0/
00
06
17
b1011000 #
0!
#905000
1.
1!
#910000
1/"
0,
0*
1+"
0-
b100 w
1%"
0("
1&"
0'"
1""
0)
0+
b100 (
b100 v
0!"
0~
1^
0y
1Z
b10 s
b10 O
1T
b10010 &
b10 N
0W
1U
0V
1Q
b1 K
b1010101 '
15
14
1/
b1011001 #
0!
#915000
0.
1!
#920000
0/
10
b1011010 #
0!
#925000
1!
#930000
0."
1+"
0)"
1!"
1~
b100 w
1%"
b101 (
b101 v
0("
1&"
0'"
1y
1""
0Z
0P
b11 s
0T
1W
0U
1V
b0 O
0[
b10011 &
b11 N
1^
1]
0Q
1X
b10 K
12
b1010110 '
05
13
04
1/
b1011011 #
0!
#935000
1!
#940000
b100 (
b100 v
0!"
0~
0y
b10 s
b10010 &
b10 N
0W
0V
0X
0R
1Y
b0 K
b10 L
02
03
19
b1011000 '
0<
1:
0;
0/
00
16
b1011100 #
0!
#945000
1!
#950000
b101 (
b101 v
1!"
1~
1y
b11 s
b10011 &
b11 N
1W
1V
1Q
b1 K
b1011001 '
15
14
1/
b1011101 #
0!
#955000
1!
#960000
0/
10
b1011110 #
0!
#965000
1!
#970000
1."
0+"
1)"
0!"
0~
b0 w
0%"
b110 (
b110 v
1("
0&"
1'"
0y
0""
1P
b100 s
0W
0V
b100 O
1[
b10100 &
b0 N
0^
1\
0]
0Q
1X
b10 K
12
b1011010 '
05
13
04
1/
b1011111 #
0!
#975000
1!
#980000
b10 (
b10 v
0/"
0."
0)"
b0 s
b10000 &
0P
b0 O
0[
0\
0X
0Y
b0 K
b0 L
02
03
b1010000 '
09
0:
0/
00
06
07
0=
1>
b1100000 #
0!
#985000
1!
#990000
1,
1*
1-
1+
b11 (
b11 v
1!"
1~
1y
b1 s
b10001 &
b1 N
1W
1V
1Q
b1 K
b1010001 '
15
14
1/
b1100001 #
0!
#995000
1.
1!
#1000000
0/
10
b1100010 #
0!
#1005000
1!
#1010000
1/"
0,
0*
1+"
0-
0+
0!"
0~
b100 w
1%"
b100 (
b100 v
0("
1&"
0'"
0y
1""
b10 s
0W
0V
b10010 &
b10 N
1^
1]
0Q
1X
b10 K
12
b1010010 '
05
13
04
1/
b1100011 #
0!
#1015000
0.
1!
#1020000
1,
1*
1-
1+
0/"
0+"
1!"
1~
b0 w
0%"
b11 (
b11 v
1("
0&"
1'"
1y
0""
b1 s
0^
0]
b10001 &
b1 N
1W
1V
0X
1R
b0 K
b1 L
02
03
b1010100 '
1<
1;
0/
00
16
b1100100 #
0!
#1025000
1.
1!
#1030000
1/"
0,
0*
1+"
0-
b100 w
1%"
0("
1&"
0'"
1""
0)
0+
b100 (
b100 v
0!"
0~
1^
0y
1Z
b10 s
b10 O
1T
b10010 &
b10 N
0W
1U
0V
1Q
b1 K
b1010101 '
15
14
1/
b1100101 #
0!
#1035000
0.
1!
#1040000
0/
10
b1100110 #
0!
#1045000
1!
#1050000
0."
1+"
0)"
1!"
1~
b100 w
1%"
b101 (
b101 v
0("
1&"
0'"
1y
1""
0Z
0P
b11 s
0T
1W
0U
1V
b0 O
0[
b10011 &
b11 N
1^
1]
0Q
1X
b10 K
12
b1010110 '
05
13
04
1/
b1100111 #
0!
#1055000
1!
#1060000
1,
1*
1-
1+
0/"
0+"
b0 w
0%"
b11 (
b11 v
1("
0&"
1'"
0""
b1 s
b10001 &
b1 N
0^
0]
0X
b0 K
b1010100 '
02
03
0/
00
06
17
b1101000 #
0!
#1065000
1.
1!
#1070000
1/"
0,
0*
1+"
0-
b100 w
1%"
0("
1&"
0'"
1""
0)
0+
b100 (
b100 v
0!"
0~
1^
0y
1Z
b10 s
b10 O
1T
b10010 &
b10 N
0W
1U
0V
1Q
b1 K
b1010101 '
15
14
1/
b1101001 #
0!
#1075000
0.
1!
#1080000
0/
10
b1101010 #
0!
#1085000
1!
#1090000
0."
1+"
0)"
1!"
1~
b100 w
1%"
b101 (
b101 v
0("
1&"
0'"
1y
1""
0Z
0P
b11 s
0T
1W
0U
1V
b0 O
0[
b10011 &
b11 N
1^
1]
0Q
1X
b10 K
12
b1010110 '
05
13
04
1/
b1101011 #
0!
#1095000
1!
#1100000
b100 (
b100 v
0!"
0~
0y
b10 s
b10010 &
b10 N
0W
0V
0X
0R
1Y
b0 K
b10 L
02
03
19
b1011000 '
0<
1:
0;
0/
00
16
b1101100 #
0!
#1105000
1!
#1110000
b101 (
b101 v
1!"
1~
1y
b11 s
b10011 &
b11 N
1W
1V
1Q
b1 K
b1011001 '
15
14
1/
b1101101 #
0!
#1115000
1!
#1120000
0/
10
b1101110 #
0!
#1125000
1!
#1130000
1."
0+"
1)"
0!"
0~
b0 w
0%"
b110 (
b110 v
1("
0&"
1'"
0y
0""
1P
b100 s
0W
0V
b100 O
1[
b10100 &
b0 N
0^
1\
0]
0Q
1X
b10 K
12
b1011010 '
05
13
04
1/
b1101111 #
0!
#1135000
1!
